[
  {
    "departement": "ALIBORI",
    "commune": "Banikoara",
    "denomination": "Pharmacie Centrale de Banikoara",
    "address": "Banikoara",
    "responsable": "AFIDJI Kifayatou",
    "contacts": 94013984,
    "tel": 95811460,
    "latitude": "",
    "longitude": ""
  },
  {
    "departement": "ALIBORI",
    "commune": "Kandi",
    "denomination": "Pharmacie Na Siara",
    "address": "Kandi BP.:27",
    "responsable": "Raïmi Y. TOGBE",
    "contacts": 23630046,
    "tel": "",
    "latitude": "",
    "longitude": ""
  },
  {
    "departement": "ALIBORI",
    "commune": "Kandi",
    "denomination": "Pharmacie Albarika (décès)",
    "address": "Kandi BP.:41",
    "responsable": "Feu Madina YARO",
    "contacts": 97122441,
    "tel": 23630045,
    "latitude": "",
    "longitude": ""
  },
  {
    "departement": "ALIBORI",
    "commune": "Malanville",
    "denomination": "Pharmacie DARA FARI",
    "address": "Malanville centre BP 101",
    "responsable": "Tidjani LEHMAN",
    "contacts": 95337586,
    "tel": 23670260,
    "latitude": "",
    "longitude": ""
  },
  {
    "departement": "ALIBORI",
    "commune": "Malanville",
    "denomination": "Pharmacie DU SAHEL",
    "address": "Malanville centre BP 92",
    "responsable": "Feu Clement A. LISSANON",
    "contacts": 23670182,
    "tel": 23670182,
    "latitude": "",
    "longitude": ""
  },
  {
    "departement": "ATACORA",
    "commune": "Natitingou",
    "denomination": "Pharmacie Tissanta",
    "address": "NATITINGOU B.P. : 118",
    "responsable": "Florent KOUAGOU",
    "contacts": 23821013,
    "tel": "",
    "latitude": "",
    "longitude": ""
  },
  {
    "departement": "ATACORA",
    "commune": "Natitingou",
    "denomination": "Pharmacie La Bienheureuse",
    "address": "NATITINGOU B.P. : 600",
    "responsable": "Bader Bèmpakè N’TCHA",
    "contacts": 64862682,
    "tel": 97515333,
    "latitude": "",
    "longitude": ""
  },
  {
    "departement": "ATACORA",
    "commune": "Tanguiéta",
    "denomination": "Pharmacie Tanguiéta",
    "address": "TANGUIETA BP: 187",
    "responsable": "Francis KOUNAGBE",
    "contacts": 95431413,
    "tel": 67304900,
    "latitude": "",
    "longitude": ""
  },
  {
    "departement": "ATLANTIQUE",
    "commune": "Abomey-Calavi",
    "denomination": "Pharmacie Du Lac",
    "address": "CALAVI KPOTA B.P. : 87",
    "responsable": "Rita DADELE née ELISHA",
    "contacts": 21360162,
    "tel": "",
    "latitude": "6.44668",
    "longitude": "2.35472"
  },
  {
    "departement": "ATLANTIQUE",
    "commune": "Abomey-Calavi",
    "denomination": "Pharmacie Du Château d’eau",
    "address": "CALAVI KPOTA B.P. : 192",
    "responsable": "ANIFOWOSHE BELLO Adébissi Sulifath",
    "contacts": 21360018,
    "tel": "",
    "latitude": "6.45778",
    "longitude": "2.35622"
  },
  {
    "departement": "ATLANTIQUE",
    "commune": "Abomey-Calavi",
    "denomination": "Pharmacie L’Angélus",
    "address": "",
    "responsable": "Marcelin C.TAKIN",
    "contacts": "",
    "tel": "",
    "latitude": "",
    "longitude": ""
  },
  {
    "departement": "ATLANTIQUE",
    "commune": "Abomey-Calavi",
    "denomination": "Pharmacie De l'immaculée conception",
    "address": "DJADJO BETON ARME",
    "responsable": "Pedro E, T, SEKLOKA",
    "contacts": 97949672,
    "tel": "",
    "latitude": "",
    "longitude": ""
  },
  {
    "departement": "ATLANTIQUE",
    "commune": "Abomey-Calavi",
    "denomination": "Pharmacie Cité Arconville",
    "address": "CITE ARCONVILLE B.P. : 1309",
    "responsable": "Wilfrid Didier D. AGBATCHOSSOU",
    "contacts": 21033109,
    "tel": 95669466,
    "latitude": "",
    "longitude": ""
  },
  {
    "departement": "ATLANTIQUE",
    "commune": "Abomey-Calavi",
    "denomination": "Pharmacie Les Grace Divine de Houèdo",
    "address": "HOUEDO",
    "responsable": "MAVOHA Achille",
    "contacts": "",
    "tel": "",
    "latitude": "",
    "longitude": ""
  },
  {
    "departement": "ATLANTIQUE",
    "commune": "Abomey-Calavi",
    "denomination": "Pharmacie SOS SANTE",
    "address": "AGORI SOS 01BP7755",
    "responsable": "KOROGONE Edwige Tècle B.S.",
    "contacts": 98988797,
    "tel": 96640880,
    "latitude": "",
    "longitude": ""
  },
  {
    "departement": "ATLANTIQUE",
    "commune": "Abomey-Calavi",
    "denomination": "Pharmacie Du Campus UAC",
    "address": "UAC 08 BP:268",
    "responsable": "Marlène T. S. M. KOUDANDE",
    "contacts": 95064073,
    "tel": "",
    "latitude": "6.42518",
    "longitude": "2.34844"
  },
  {
    "departement": "ATLANTIQUE",
    "commune": "Abomey-Calavi",
    "denomination": "Pharmacie Principale de HOUETO",
    "address": "HOUETO BP 420 Cotonou",
    "responsable": "Estelle E, SEWADE",
    "contacts": 96809040,
    "tel": "",
    "latitude": "",
    "longitude": ""
  },
  {
    "departement": "ATLANTIQUE",
    "commune": "Abomey-Calavi",
    "denomination": "Pharmacie DE L’Emmanuel",
    "address": "AGORI 1 02 - B.P : 1410",
    "responsable": "Régina E. Irma GNACADJA épouse BADET",
    "contacts": 97075867,
    "tel": "",
    "latitude": "",
    "longitude": ""
  },
  {
    "departement": "ATLANTIQUE",
    "commune": "Abomey-Calavi",
    "denomination": "Pharmacie Saint Gérard",
    "address": "ZOUNDJA",
    "responsable": "Lidwine N, HOUNKPATIN",
    "contacts": 94815582,
    "tel": 96716151,
    "latitude": "",
    "longitude": ""
  },
  {
    "departement": "ATLANTIQUE",
    "commune": "Abomey-Calavi",
    "denomination": "Pharmacie Zoca",
    "address": "ZOKA",
    "responsable": "Gounou Khamel LAFIA",
    "contacts": "",
    "tel": "",
    "latitude": "",
    "longitude": ""
  },
  {
    "departement": "ATLANTIQUE",
    "commune": "Abomey-Calavi",
    "denomination": "Pharmacie Tokan",
    "address": "TOKAN",
    "responsable": "Anihuvi Nadège BEBADA",
    "contacts": 97476306,
    "tel": "",
    "latitude": "",
    "longitude": ""
  },
  {
    "departement": "ATLANTIQUE",
    "commune": "Abomey-Calavi",
    "denomination": "Pharmacie Zopah Oluwatobi",
    "address": "ZOPAH",
    "responsable": "OUINSOU HOUENOU Elsie",
    "contacts": 96959319,
    "tel": 95745034,
    "latitude": "6.48479",
    "longitude": "2.35737"
  },
  {
    "departement": "ATLANTIQUE",
    "commune": "Abomey-Calavi",
    "denomination": "Pharmacie Akassato",
    "address": "AKASSATO 03 - B.P : 1496",
    "responsable": "Hélène GBEMENOU",
    "contacts": 21350705,
    "tel": 95846910,
    "latitude": "6.5112",
    "longitude": "2.36293"
  },
  {
    "departement": "ATLANTIQUE",
    "commune": "Abomey-Calavi",
    "denomination": "Pharmacie Saint Georges",
    "address": "ADJAGBO",
    "responsable": "Eunice S, D, GOUTON",
    "contacts": 61931167,
    "tel": 61931167,
    "latitude": "6.52004",
    "longitude": "2.3905"
  },
  {
    "departement": "ATLANTIQUE",
    "commune": "Abomey-Calavi",
    "denomination": "PHARMACIE FIFAME",
    "address": "GBETAGO",
    "responsable": "KOISSI Joel,",
    "contacts": 60316363,
    "tel": "",
    "latitude": "6.52794",
    "longitude": "2.3526"
  },
  {
    "departement": "ATLANTIQUE",
    "commune": "Abomey-Calavi",
    "denomination": "Pharmacie Sainte Marie Elise",
    "address": "GLO-DJIGBE CENTRE",
    "responsable": "Kadi Jacques Francis Régis CHABI CHALLA",
    "contacts": "",
    "tel": "",
    "latitude": "6.55712",
    "longitude": "2.30805"
  },
  {
    "departement": "ATLANTIQUE",
    "commune": "Abomey-Calavi",
    "denomination": "Pharmacie Togoudo",
    "address": "TOGOUDO 03 - B.P. : 1726",
    "responsable": "Zacharie BIO YERIMA",
    "contacts": 21352162,
    "tel": "",
    "latitude": "6.40531",
    "longitude": "2.34182"
  },
  {
    "departement": "ATLANTIQUE",
    "commune": "Abomey-Calavi",
    "denomination": "Pharmacie Ste Adèle de l’Echangeur",
    "address": "GODOMEY",
    "responsable": "Henri Charles AÏNADOU",
    "contacts": 21350220,
    "tel": "",
    "latitude": "6.39229",
    "longitude": "2.34977"
  },
  {
    "departement": "ATLANTIQUE",
    "commune": "Abomey-Calavi",
    "denomination": "Pharmacie Houénoussou",
    "address": "GODOMEY GARE",
    "responsable": "Valère  Comlan C. AMEGANKPOE",
    "contacts": 21351792,
    "tel": "",
    "latitude": "6.37878",
    "longitude": "2.33974"
  },
  {
    "departement": "ATLANTIQUE",
    "commune": "Abomey-Calavi",
    "denomination": "Pharmacie Le Jourdain Togoudo",
    "address": "TOGOUDO B.P. : 1164",
    "responsable": "Esaïe Moudewhenou MARSHALL",
    "contacts": 21352536,
    "tel": "",
    "latitude": "",
    "longitude": ""
  },
  {
    "departement": "ATLANTIQUE",
    "commune": "Abomey-Calavi",
    "denomination": "Pharmacie Hèdomey",
    "address": "HEDOMEY B.P. :",
    "responsable": "Dèlomè Tchédé VODOUHE",
    "contacts": 95188199,
    "tel": "",
    "latitude": "",
    "longitude": ""
  },
  {
    "departement": "ATLANTIQUE",
    "commune": "Abomey-Calavi",
    "denomination": "Pharmacie IITA",
    "address": "TOGOUDO",
    "responsable": "EDAH Alain M. V.",
    "contacts": 95441946,
    "tel": "",
    "latitude": "6.4135",
    "longitude": "2.33251"
  },
  {
    "departement": "ATLANTIQUE",
    "commune": "Abomey-Calavi",
    "denomination": "Pharmacie Déo Gratias",
    "address": "COCOTOMEY 08-B.P. : 1091",
    "responsable": "Marthe Aniname SALLAN",
    "contacts": 96217914,
    "tel": "",
    "latitude": "",
    "longitude": ""
  },
  {
    "departement": "ATLANTIQUE",
    "commune": "Abomey-Calavi",
    "denomination": "Pharmacie Godomey PK 14",
    "address": "GODOMEY PK 14 03- B.P. : 1025",
    "responsable": "Claude Mireille CODJIA",
    "contacts": 21001185,
    "tel": "",
    "latitude": "6.3867",
    "longitude": "2.32601"
  },
  {
    "departement": "ATLANTIQUE",
    "commune": "Abomey-Calavi",
    "denomination": "Pharmacie Godomey Fignonhou",
    "address": "FIGNONHOU 01- B.P. : 04239",
    "responsable": "Céline Raymonde Dossi ZOUNON",
    "contacts": 96953506,
    "tel": 95441943,
    "latitude": "6.37422",
    "longitude": "2.34079"
  },
  {
    "departement": "ATLANTIQUE",
    "commune": "Abomey-Calavi",
    "denomination": "Pharmacie Saint BENOIT de womey",
    "address": "WOMEY",
    "responsable": "SONDJO Gethaime",
    "contacts": 63184545,
    "tel": "",
    "latitude": "",
    "longitude": ""
  },
  {
    "departement": "ATLANTIQUE",
    "commune": "Abomey-Calavi",
    "denomination": "Pharmacie Eyitayo de Womey",
    "address": "WOMEY 05-B.P. : 1903",
    "responsable": "Esperance Clémence. E.KATOSSI",
    "contacts": 90043735,
    "tel": 90043735,
    "latitude": "",
    "longitude": ""
  },
  {
    "departement": "ATLANTIQUE",
    "commune": "Abomey-Calavi",
    "denomination": "Pharmacie Maria-Gléta",
    "address": "MARIA-GLETA",
    "responsable": "Noubiowa Conrad B. KOUSSIHOUEDE",
    "contacts": 97311917,
    "tel": 95077610,
    "latitude": "",
    "longitude": ""
  },
  {
    "departement": "ATLANTIQUE",
    "commune": "Abomey-Calavi",
    "denomination": "Pharmacie La Concorde",
    "address": "COCOTOMEY BP :28",
    "responsable": "Corine DEGLA épse AOUTCHEME",
    "contacts": 21350452,
    "tel": "",
    "latitude": "",
    "longitude": ""
  },
  {
    "departement": "ATLANTIQUE",
    "commune": "Abomey-Calavi",
    "denomination": "Pharmacie Le Président",
    "address": "COCOTOMEY 081-B.P. :7021",
    "responsable": "Bonaventure PADONOU",
    "contacts": 21351339,
    "tel": 21351339,
    "latitude": "",
    "longitude": ""
  },
  {
    "departement": "ATLANTIQUE",
    "commune": "Abomey-Calavi",
    "denomination": "Pharmacie Le Sycomore",
    "address": "COCOCODJI 03 - B. P. : 674",
    "responsable": "Feu Théotime BRAHI",
    "contacts": 95846921,
    "tel": 95846921,
    "latitude": "6.38823",
    "longitude": "2.26697"
  },
  {
    "departement": "ATLANTIQUE",
    "commune": "Abomey-Calavi",
    "denomination": "Pharmacie St Abel Pharmabel de Tankpè",
    "address": "TANKPE CARREFOUR BP1709",
    "responsable": "Camille Rock DOMONHEDO",
    "contacts": 21352968,
    "tel": "",
    "latitude": "",
    "longitude": ""
  },
  {
    "departement": "ATLANTIQUE",
    "commune": "Abomey-Calavi",
    "denomination": "Pharmacie Le Schilo (Tankpè-Parana)",
    "address": "ZOGBADJE 03-B.P. : 3284",
    "responsable": "Eunice Labissi KOMI Epse JOHNSON",
    "contacts": 97659953,
    "tel": 95861014,
    "latitude": "",
    "longitude": ""
  },
  {
    "departement": "ATLANTIQUE",
    "commune": "Abomey-Calavi",
    "denomination": "Pharmacie Espace Santé",
    "address": "DEKOUGBE 02 - B.P. : 801",
    "responsable": "Marina Vidova épse ANANI",
    "contacts": 21352256,
    "tel": "",
    "latitude": "6.38335",
    "longitude": "2.33502"
  },
  {
    "departement": "ATLANTIQUE",
    "commune": "Abomey-Calavi",
    "denomination": "Pharmacie Dèkoungbé",
    "address": "DEKOUGBE INTERIEUR",
    "responsable": "Firmine KINHA",
    "contacts": 95428824,
    "tel": "",
    "latitude": "",
    "longitude": ""
  },
  {
    "departement": "ATLANTIQUE",
    "commune": "Abomey-Calavi",
    "denomination": "Pharmacie Godomey Centre",
    "address": "GODOMEY SAVI 01 - B.P: 1960",
    "responsable": "HESSOU Coffi Pascal",
    "contacts": 21351095,
    "tel": "",
    "latitude": "",
    "longitude": ""
  },
  {
    "departement": "ATLANTIQUE",
    "commune": "Abomey-Calavi",
    "denomination": "Pharmacie Saint Paul",
    "address": "Godomey Nouvènamèdé",
    "responsable": "Aristide S, AKOVOWANOU",
    "contacts": 96315434,
    "tel": "",
    "latitude": "6.38112",
    "longitude": "2.34101"
  },
  {
    "departement": "ATLANTIQUE",
    "commune": "Abomey-Calavi",
    "denomination": "Pharmacie Godomey",
    "address": "Godomey 03BP2673",
    "responsable": "CAPO CHICHI Philippe",
    "contacts": 97982808,
    "tel": 96005454,
    "latitude": "",
    "longitude": ""
  },
  {
    "departement": "ATLANTIQUE",
    "commune": "Abomey-Calavi",
    "denomination": "Pharmacie Magnificat",
    "address": "GBODJE",
    "responsable": "LOKO Armelle Mylène",
    "contacts": 64375357,
    "tel": 64375357,
    "latitude": "6.38762",
    "longitude": "2.27746"
  },
  {
    "departement": "ATLANTIQUE",
    "commune": "Abomey-Calavi",
    "denomination": "Pharmacie Hêvié Sarl",
    "address": "HEVIE               04 -BP.: 494",
    "responsable": "DOHOU Angèle Modupè Epse YEMOA",
    "contacts": 21006994,
    "tel": "",
    "latitude": "6.40731",
    "longitude": "2.26588"
  },
  {
    "departement": "ATLANTIQUE",
    "commune": "So-Ava",
    "denomination": "Pharmacie Zinvié",
    "address": "ZINVIE",
    "responsable": "Todèdé Murielle GBAGUIDI",
    "contacts": 97678774,
    "tel": "",
    "latitude": "",
    "longitude": ""
  },
  {
    "departement": "ATLANTIQUE",
    "commune": "So-Ava",
    "denomination": "Pharmacie Vallée Béraca de So-Ava",
    "address": "SO-AVA",
    "responsable": "OKPE Viviane O. B. Kpéléro",
    "contacts": 65801635,
    "tel": 65801635,
    "latitude": "",
    "longitude": ""
  },
  {
    "departement": "ATLANTIQUE",
    "commune": "Allada",
    "denomination": "Pharmacie Adanhounsa",
    "address": "ADANHOUNSA B P. : 123",
    "responsable": "Narcisse GBEDJI décès",
    "contacts": 21371045,
    "tel": "",
    "latitude": "",
    "longitude": ""
  },
  {
    "departement": "ATLANTIQUE",
    "commune": "Allada",
    "denomination": "Pharmacie TOUSSAINT LOUVERTURE",
    "address": "Allada",
    "responsable": "GOUMISSI Inès Evita",
    "contacts": 94626295,
    "tel": "",
    "latitude": "",
    "longitude": ""
  },
  {
    "departement": "ATLANTIQUE",
    "commune": "Allada",
    "denomination": "Pharmacie Les Capucines",
    "address": "SEKOU",
    "responsable": "GNINTOUNGBE Linette",
    "contacts": 64803980,
    "tel": 96682308,
    "latitude": "",
    "longitude": ""
  },
  {
    "departement": "ATLANTIQUE",
    "commune": "Toffo",
    "denomination": "Pharmacie Saint Enfant Jésus",
    "address": "HOUEGBO B.P: 84",
    "responsable": "Virginie AGBEGBANOU.",
    "contacts": 95568274,
    "tel": "",
    "latitude": "",
    "longitude": ""
  },
  {
    "departement": "ATLANTIQUE",
    "commune": "Toffo",
    "denomination": "Pharmacie Sèhouè",
    "address": "SEHOUE 07 - B.P. : 619",
    "responsable": "Marius HOUEZE",
    "contacts": 21141553,
    "tel": 21141553,
    "latitude": "",
    "longitude": ""
  },
  {
    "departement": "ATLANTIQUE",
    "commune": "Ouidah",
    "denomination": "Pharmacie PAHOU",
    "address": "PAHOU03 - B. P. :301",
    "responsable": "Audrey Nina DJENONTIN",
    "contacts": 97188866,
    "tel": 90018478,
    "latitude": "",
    "longitude": ""
  },
  {
    "departement": "ATLANTIQUE",
    "commune": "Ouidah",
    "denomination": "Pharmacie Prunelle de l'Eternel de PAHOU",
    "address": "152 Sè",
    "responsable": "LAWAL Abdelaziz",
    "contacts": 94014280,
    "tel": 95432873,
    "latitude": "",
    "longitude": ""
  },
  {
    "departement": "ATLANTIQUE",
    "commune": "Ouidah",
    "denomination": "Pharmacie Dagbédé de Vassého",
    "address": "Ouidah",
    "responsable": "ADEOSSI Ronick Landry",
    "contacts": "",
    "tel": "",
    "latitude": "",
    "longitude": ""
  },
  {
    "departement": "ATLANTIQUE",
    "commune": "Ouidah",
    "denomination": "Pharmacie La Grâce",
    "address": "KPASSETON   B.P. : 28",
    "responsable": "Etienne D. OUSSOU",
    "contacts": 21341090,
    "tel": "",
    "latitude": "",
    "longitude": ""
  },
  {
    "departement": "ATLANTIQUE",
    "commune": "Ouidah",
    "denomination": "Pharmacie Mitonwè",
    "address": "MITONWE B.P. : 273",
    "responsable": "Gisèle Sicca ELISHA ADJANOHOUN",
    "contacts": 21341344,
    "tel": "",
    "latitude": "6.3604353",
    "longitude": "2.0819247"
  },
  {
    "departement": "ATLANTIQUE",
    "commune": "Ouidah",
    "denomination": "Pharmacie Gbèna",
    "address": "GBENAN        B.P. : 141",
    "responsable": "Christian ATTIGNON",
    "contacts": 21341196,
    "tel": "",
    "latitude": "6.3653048",
    "longitude": "2.0754434"
  },
  {
    "departement": "ATLANTIQUE",
    "commune": "Ouidah",
    "denomination": "Pharmacie La Providence",
    "address": "KPASSE",
    "responsable": "Angelot Paul Z. AHOUANSE",
    "contacts": 97150148,
    "tel": "",
    "latitude": "6.3748998",
    "longitude": "2.0873066"
  },
  {
    "departement": "ATLANTIQUE",
    "commune": "Tori-Bossito",
    "denomination": "Pharmacie Sainte Bernadette",
    "address": "TORI-GARE (AHOKO)",
    "responsable": "HOUNGNIMY H. Ghislaine Angèle",
    "contacts": 67952226,
    "tel": "",
    "latitude": "6.51",
    "longitude": "2.15935"
  },
  {
    "departement": "BORGOU",
    "commune": "Bembèrèkè",
    "denomination": "Pharmacie Bwendora",
    "address": "Bembèrèkè",
    "responsable": "Rachade Zimé Nakou",
    "contacts": 97327260,
    "tel": 95857984,
    "latitude": "",
    "longitude": ""
  },
  {
    "departement": "BORGOU",
    "commune": "Nikki",
    "denomination": "Pharmacie Don de Dieu",
    "address": "Nikki BP. :21",
    "responsable": "Abdoulaye A. W. BACHABI",
    "contacts": 23144935,
    "tel": 97264246,
    "latitude": "",
    "longitude": ""
  },
  {
    "departement": "BORGOU",
    "commune": "Parakou",
    "denomination": "Pharmacie Santé Vitale",
    "address": "",
    "responsable": "Gil TOSSOU",
    "contacts": 23611388,
    "tel": "",
    "latitude": "",
    "longitude": ""
  },
  {
    "departement": "BORGOU",
    "commune": "Parakou",
    "denomination": "Pharmacie La Gare",
    "address": "Quartier GARE B.P. : 824",
    "responsable": "Janvier Guy ZINZINDOHOUE",
    "contacts": 23610941,
    "tel": "",
    "latitude": "",
    "longitude": ""
  },
  {
    "departement": "BORGOU",
    "commune": "Parakou",
    "denomination": "Pharmacie La Grâce",
    "address": "02 B.P. : 62",
    "responsable": "Roger ADJITORE",
    "contacts": 23612472,
    "tel": "",
    "latitude": "",
    "longitude": ""
  },
  {
    "departement": "BORGOU",
    "commune": "Parakou",
    "denomination": "Pharmacie Carrefour Hubert K.MAGA",
    "address": "B.P. : 26",
    "responsable": "Martine Mahougnon KOGNONSA",
    "contacts": 95542763,
    "tel": "",
    "latitude": "",
    "longitude": ""
  },
  {
    "departement": "BORGOU",
    "commune": "Parakou",
    "denomination": "Pharmacie Du Lycée",
    "address": "B.P. : 546",
    "responsable": "Maurice Codjo E. ASSOGBA",
    "contacts": 97989156,
    "tel": "",
    "latitude": "",
    "longitude": ""
  },
  {
    "departement": "BORGOU",
    "commune": "Parakou",
    "denomination": "Pharmacie Confiance",
    "address": "GANOU",
    "responsable": "AKOBI Sadia",
    "contacts": 61635430,
    "tel": 62741544,
    "latitude": "",
    "longitude": ""
  },
  {
    "departement": "BORGOU",
    "commune": "Parakou",
    "denomination": "Pharmacie Nouvelle Albarika",
    "address": "B.P. : 80",
    "responsable": "GOUDOTE Alain",
    "contacts": 23610649,
    "tel": "",
    "latitude": "",
    "longitude": ""
  },
  {
    "departement": "BORGOU",
    "commune": "Parakou",
    "denomination": "Pharmacie Banikanni",
    "address": "BANIKANNI B.P. : 805",
    "responsable": "Pierre NAGOBA",
    "contacts": 23610484,
    "tel": 23610484,
    "latitude": "",
    "longitude": ""
  },
  {
    "departement": "BORGOU",
    "commune": "Parakou",
    "denomination": "Pharmacie Du Campus",
    "address": "B.P. : 1014",
    "responsable": "Fortuné Allyou SABI MEKIRE",
    "contacts": 97517179,
    "tel": 95382739,
    "latitude": "",
    "longitude": ""
  },
  {
    "departement": "BORGOU",
    "commune": "Parakou",
    "denomination": "",
    "address": "",
    "responsable": "Farid BOURAIMA",
    "contacts": "",
    "tel": "",
    "latitude": "",
    "longitude": ""
  },
  {
    "departement": "BORGOU",
    "commune": "Parakou",
    "denomination": "Pharmacie Tranza     (Transfert)",
    "address": "B.P. : 684",
    "responsable": "Benoît N. DAKOU",
    "contacts": 23611012,
    "tel": 23611012,
    "latitude": "",
    "longitude": ""
  },
  {
    "departement": "BORGOU",
    "commune": "Parakou",
    "denomination": "Pharmacie Zongo II",
    "address": "ZONGO        B.P. : 827",
    "responsable": "Imorou KOUTOUMA ADA",
    "contacts": 23610195,
    "tel": 23610195,
    "latitude": "",
    "longitude": ""
  },
  {
    "departement": "BORGOU",
    "commune": "Parakou",
    "denomination": "Pharmacie Vita - Plus",
    "address": "02 B.P. : 61",
    "responsable": "Wêi feng FANG épse ADJITORE",
    "contacts": "",
    "tel": "",
    "latitude": "",
    "longitude": ""
  },
  {
    "departement": "BORGOU",
    "commune": "Parakou",
    "denomination": "Pharmacie Camp Séro Kpéra",
    "address": "B.P. : 284",
    "responsable": "Abdel Wahid BABIO",
    "contacts": 97542054,
    "tel": 95131333,
    "latitude": "",
    "longitude": ""
  },
  {
    "departement": "BORGOU",
    "commune": "Parakou",
    "denomination": "Pharmacie Des trois banques",
    "address": "",
    "responsable": "ATINDOGBE Raoul",
    "contacts": 95682078,
    "tel": 95682078,
    "latitude": "",
    "longitude": ""
  },
  {
    "departement": "BORGOU",
    "commune": "Parakou",
    "denomination": "Pharmacie Guéma",
    "address": "GUEMA",
    "responsable": "Tchinou Diane ALOUKOUTOU",
    "contacts": 97893327,
    "tel": 97893327,
    "latitude": "",
    "longitude": ""
  },
  {
    "departement": "BORGOU",
    "commune": "N’Dali",
    "denomination": "Pharmacie N’Dali",
    "address": "N’Dali",
    "responsable": "AMIDOU Moustapha",
    "contacts": 97015254,
    "tel": 97015254,
    "latitude": "",
    "longitude": ""
  },
  {
    "departement": "COLLINES",
    "commune": "Bantè",
    "denomination": "Pharmacie LES COLLINES",
    "address": "ILELAKOUN/Bantè",
    "responsable": "Rodrigue Abiola AGBODJOGBE",
    "contacts": 97894836,
    "tel": 95639911,
    "latitude": "",
    "longitude": ""
  },
  {
    "departement": "COLLINES",
    "commune": "Savalou",
    "denomination": "Pharmacie AGBADO",
    "address": "AGBADO BP : 97",
    "responsable": "Michel Arnaud AKPAMOLI",
    "contacts": 22540555,
    "tel": 22540555,
    "latitude": "",
    "longitude": ""
  },
  {
    "departement": "COLLINES",
    "commune": "Savalou",
    "denomination": "Pharmacie LAFIA Sarl",
    "address": "Savalou B.P. : 351",
    "responsable": "Tayo Hervé AYEKO",
    "contacts": 22048450,
    "tel": 61937749,
    "latitude": "",
    "longitude": ""
  },
  {
    "departement": "COLLINES",
    "commune": "Glazoué",
    "denomination": "Pharmacie Principale Glazoué",
    "address": "Glazoué",
    "responsable": "DANKORO Yacine Séro",
    "contacts": 96690869,
    "tel": 94005555,
    "latitude": "",
    "longitude": ""
  },
  {
    "departement": "COLLINES",
    "commune": "Glazoué",
    "denomination": "Pharmacie DE LA SAVANE",
    "address": "Glazoué BP :4",
    "responsable": "Kinti Yassénon ADANDE",
    "contacts": 22540082,
    "tel": 22540082,
    "latitude": "",
    "longitude": ""
  },
  {
    "departement": "COLLINES",
    "commune": "Dassa-Zoumè",
    "denomination": "Pharmacie DASSA CARREFOUR",
    "address": "DASSA M/ BOKO Hilaire",
    "responsable": "AGONNOUDE Wilfried",
    "contacts": 66667021,
    "tel": 66667021,
    "latitude": "",
    "longitude": ""
  },
  {
    "departement": "COLLINES",
    "commune": "Dassa-Zoumè",
    "denomination": "Pharmacie LES COLLINES",
    "address": "DASSA BP 67",
    "responsable": "Salimi ALIOU",
    "contacts": 22530077,
    "tel": 22530077,
    "latitude": "",
    "longitude": ""
  },
  {
    "departement": "COLLINES",
    "commune": "Dassa-Zoumè",
    "denomination": "Pharmacie Priorité Santé",
    "address": "DOMEY  Dassa-Zoumè",
    "responsable": "Célestin C. AKOLE",
    "contacts": 97179772,
    "tel": 97179772,
    "latitude": "",
    "longitude": ""
  },
  {
    "departement": "COLLINES",
    "commune": "Savè",
    "denomination": "Pharmacie De La Source",
    "address": "B.P. :85",
    "responsable": "Alain FADONOUGBO",
    "contacts": 22550256,
    "tel": 22550256,
    "latitude": "",
    "longitude": ""
  },
  {
    "departement": "COLLINES",
    "commune": "Savè",
    "denomination": "Pharmacie Ouesse centre",
    "address": "ouesse centre",
    "responsable": "Boris SEGLA",
    "contacts": 94224806,
    "tel": 96953598,
    "latitude": "",
    "longitude": ""
  },
  {
    "departement": "COLLINES",
    "commune": "Savè",
    "denomination": "Pharmacie oluwatobi de kilibo",
    "address": "kilibo",
    "responsable": "Guillume DOFLIN",
    "contacts": 97731395,
    "tel": "",
    "latitude": "",
    "longitude": ""
  },
  {
    "departement": "COLLINES",
    "commune": "Savè",
    "denomination": "Pharmacie Ireti",
    "address": "KINGOU",
    "responsable": "Houmènou Jules Romuald AKPAKA",
    "contacts": 97477036,
    "tel": 95054469,
    "latitude": "",
    "longitude": ""
  },
  {
    "departement": "COUFFO",
    "commune": "Djakotomey",
    "denomination": "Pharmacie Sainte Victorine",
    "address": "Djakotomey",
    "responsable": "MADEGNAN Juste",
    "contacts": "",
    "tel": "",
    "latitude": "",
    "longitude": ""
  },
  {
    "departement": "COUFFO",
    "commune": "Dogbo",
    "denomination": "Pharmacie Gloria Déi de Dogbo Sarl",
    "address": "Dogbo",
    "responsable": "Dognon Yves Constantin BOKO-VOU",
    "contacts": 22463130,
    "tel": 97195927,
    "latitude": "",
    "longitude": ""
  },
  {
    "departement": "COUFFO",
    "commune": "Aplahoué",
    "denomination": "Pharmacie Saint Marcel (Azovè)",
    "address": "AZOVE",
    "responsable": "Bienvenu GBEDJINOU",
    "contacts": 22463083,
    "tel": "",
    "latitude": "",
    "longitude": ""
  },
  {
    "departement": "COUFFO",
    "commune": "Aplahoué",
    "denomination": "Pharmacie Grace Divine (Azovè décès)",
    "address": "AZOVE",
    "responsable": "Feu Hanifath Abèni A. OBAHORIN",
    "contacts": 97058729,
    "tel": 22010311,
    "latitude": "",
    "longitude": ""
  },
  {
    "departement": "COUFFO",
    "commune": "Klouekanmè",
    "denomination": "Pharmacie SAINTE CARINE",
    "address": "Klouekanmè",
    "responsable": "Bienvenu Dékpali SEKPE",
    "contacts": 97295856,
    "tel": 95853668,
    "latitude": "",
    "longitude": ""
  },
  {
    "departement": "DONGA",
    "commune": "Bassila",
    "denomination": "Pharmacie Safari",
    "address": "Bassila",
    "responsable": "Adamou KPERA",
    "contacts": 97891997,
    "tel": 94366025,
    "latitude": "",
    "longitude": ""
  },
  {
    "departement": "DONGA",
    "commune": "Djougou",
    "denomination": "Pharmacie Madina",
    "address": "Djougou       B.P. : 108",
    "responsable": "Marcel – Antonin DEDEGBE",
    "contacts": 23801541,
    "tel": 23801541,
    "latitude": "",
    "longitude": ""
  },
  {
    "departement": "DONGA",
    "commune": "Djougou",
    "denomination": "Pharmacie TAIFA",
    "address": "Djougou",
    "responsable": "DANKORO Samia",
    "contacts": 61183333,
    "tel": 63638181,
    "latitude": "",
    "longitude": ""
  },
  {
    "departement": "LITTORAL",
    "commune": "Cotonou",
    "denomination": "Pharmacie De l'Abattoir",
    "address": "ABATTOIR 06 - B.P. : 2610",
    "responsable": "Moutiatou A, T. TOUKOUROU",
    "contacts": 21331629,
    "tel": "",
    "latitude": "",
    "longitude": ""
  },
  {
    "departement": "LITTORAL",
    "commune": "Cotonou",
    "denomination": "Pharmacie Avotrou",
    "address": "AVOTROU  07 - B.P. : 0248",
    "responsable": "Moïbatou MALIKI",
    "contacts": 21330452,
    "tel": "",
    "latitude": "",
    "longitude": ""
  },
  {
    "departement": "LITTORAL",
    "commune": "Cotonou",
    "denomination": "Pharmacie Bolarin",
    "address": "CITE VILLE NOUVELLE",
    "responsable": "Djèmilatou ANJORIN",
    "contacts": 21336423,
    "tel": "",
    "latitude": "",
    "longitude": ""
  },
  {
    "departement": "LITTORAL",
    "commune": "Cotonou",
    "denomination": "Pharmacie Saint Urbain",
    "address": "TCHANKPAME   07 BP343",
    "responsable": "ZOMAHOUN Karelle",
    "contacts": 63608481,
    "tel": 97497783,
    "latitude": "",
    "longitude": ""
  },
  {
    "departement": "LITTORAL",
    "commune": "Cotonou",
    "denomination": "Pharmacie Dégakon",
    "address": "DEGAKON   06 - B.P. : 1361",
    "responsable": "Gaudens AGBEGNINOU",
    "contacts": 21333235,
    "tel": "",
    "latitude": "",
    "longitude": ""
  },
  {
    "departement": "LITTORAL",
    "commune": "Cotonou",
    "denomination": "Pharmacie Saint - Martin",
    "address": "SAINT MARTIN 06 - B.P. : 2133",
    "responsable": "Angèle M. HOUESSINON",
    "contacts": 21331559,
    "tel": "",
    "latitude": "",
    "longitude": ""
  },
  {
    "departement": "LITTORAL",
    "commune": "Cotonou",
    "denomination": "Pharmacie Tanto",
    "address": "TANTO    06 - B.P. : 787",
    "responsable": "Issa OSSENI",
    "contacts": 21331079,
    "tel": "",
    "latitude": "",
    "longitude": ""
  },
  {
    "departement": "LITTORAL",
    "commune": "Cotonou",
    "denomination": "Pharmacie Suru-Léré (Ex Ancien Pont)",
    "address": "SURU-LERE",
    "responsable": "Ayichatou Chitou OSSENI",
    "contacts": 21313114,
    "tel": "",
    "latitude": "",
    "longitude": ""
  },
  {
    "departement": "LITTORAL",
    "commune": "Cotonou",
    "denomination": "Pharmacie Adetona – Lom’Nava",
    "address": "LOM’NAVA   05 - B.P. : 2120",
    "responsable": "Alimatou LAGUIDE",
    "contacts": 21337773,
    "tel": "",
    "latitude": "",
    "longitude": ""
  },
  {
    "departement": "LITTORAL",
    "commune": "Cotonou",
    "denomination": "Pharmacie Hounchédé",
    "address": "KOWEGBO   09 - B.P. : 695",
    "responsable": "Justin NOUDEDJI",
    "contacts": 21330039,
    "tel": "",
    "latitude": "",
    "longitude": ""
  },
  {
    "departement": "LITTORAL",
    "commune": "Cotonou",
    "denomination": "Pharmacie Reine des Grâces",
    "address": "KPONDEHOU",
    "responsable": "Mireille Joëlle AHOYO épse da-SIILVA",
    "contacts": 21332318,
    "tel": "",
    "latitude": "",
    "longitude": ""
  },
  {
    "departement": "LITTORAL",
    "commune": "Cotonou",
    "denomination": "Pharmacie Sènadé",
    "address": "SENADE 1 06 - B.P. : 2148",
    "responsable": "Anatou OKETOKOUN",
    "contacts": 21331163,
    "tel": "",
    "latitude": "",
    "longitude": ""
  },
  {
    "departement": "LITTORAL",
    "commune": "Cotonou",
    "denomination": "Pharmacie Yénawa",
    "address": "YENAWA 01 - B.P. : 6458",
    "responsable": "Pamphille AHOUANGNIVO",
    "contacts": 21337170,
    "tel": "",
    "latitude": "",
    "longitude": ""
  },
  {
    "departement": "LITTORAL",
    "commune": "Cotonou",
    "denomination": "Pharmacie Gratias Minontchou",
    "address": "MINONTCHOU 06 - B.P. : 1275",
    "responsable": "Lynda Eburé Joanita SANTOS",
    "contacts": 21333690,
    "tel": 95566464,
    "latitude": "",
    "longitude": ""
  },
  {
    "departement": "LITTORAL",
    "commune": "Cotonou",
    "denomination": "Pharmacie L’Immaculée de Adogléta",
    "address": "ADOGLETA     06 - B.P. : 2124",
    "responsable": "Ayaba Murielle Florie E. J. ZOUNON ",
    "contacts": 66552255,
    "tel": "",
    "latitude": "",
    "longitude": ""
  },
  {
    "departement": "LITTORAL",
    "commune": "Cotonou",
    "denomination": "Nouvelle Pharmacie Ayélawadjè",
    "address": "Ayélawadjè",
    "responsable": "Raoufi TOUKOUROU",
    "contacts": 21331661,
    "tel": 95151291,
    "latitude": "",
    "longitude": ""
  },
  {
    "departement": "LITTORAL",
    "commune": "Cotonou",
    "denomination": "Pharmacie Midombo",
    "address": "Midombo",
    "responsable": "Zomalètho Gisèle  AÏHONNOU",
    "contacts": 21339646,
    "tel": "",
    "latitude": "",
    "longitude": ""
  },
  {
    "departement": "LITTORAL",
    "commune": "Cotonou",
    "denomination": "Pharmacie Sègbèya",
    "address": "Sègbèya",
    "responsable": "Raphaël DEGBEDJI",
    "contacts": 21331125,
    "tel": "",
    "latitude": "",
    "longitude": ""
  },
  {
    "departement": "LITTORAL",
    "commune": "Cotonou",
    "denomination": "Pharmacie Sacré-cœur",
    "address": "Sacré-cœur",
    "responsable": "Odette Deka Vodjo de-CHACUS CHANKOUIN",
    "contacts": 21336205,
    "tel": 21336209,
    "latitude": "",
    "longitude": ""
  },
  {
    "departement": "LITTORAL",
    "commune": "Cotonou",
    "denomination": "Pharmacie La Béninoise",
    "address": "SODJATINME B.P. : 7014",
    "responsable": "Maroufatou ZOUMAROU",
    "contacts": 21330646,
    "tel": "",
    "latitude": "",
    "longitude": ""
  },
  {
    "departement": "LITTORAL",
    "commune": "Cotonou",
    "denomination": "Pharmacie Le Remède",
    "address": "SODJATINME",
    "responsable": "Kamal Dine MOUTAÏROU",
    "contacts": 21333448,
    "tel": "",
    "latitude": "",
    "longitude": ""
  },
  {
    "departement": "LITTORAL",
    "commune": "Cotonou",
    "denomination": "Pharmacie De l'Habitat",
    "address": "CITE DE L’HABITAT",
    "responsable": "Clémence ADJOVI épse ACCODJI",
    "contacts": 21331751,
    "tel": "",
    "latitude": "",
    "longitude": ""
  },
  {
    "departement": "LITTORAL",
    "commune": "Cotonou",
    "denomination": "Pharmacie Ciné Concorde",
    "address": "CINE CONCORDE",
    "responsable": "Sofiath TIDJANI",
    "contacts": 21339343,
    "tel": "",
    "latitude": "",
    "longitude": ""
  },
  {
    "departement": "LITTORAL",
    "commune": "Cotonou",
    "denomination": "Pharmacie Port-Royal",
    "address": "BOCO ET FILS",
    "responsable": "Sandrine HODONOU",
    "contacts": "",
    "tel": "",
    "latitude": "",
    "longitude": ""
  },
  {
    "departement": "LITTORAL",
    "commune": "Cotonou",
    "denomination": "Pharmacie Atinkanmey",
    "address": "Atinkanmey      01 - B.P. : 4428",
    "responsable": "Laurence Mireille DENAGNON née MONNOU",
    "contacts": 21315020,
    "tel": "",
    "latitude": "",
    "longitude": ""
  },
  {
    "departement": "LITTORAL",
    "commune": "Cotonou",
    "denomination": "Pharmacie De L’Aigle Royal",
    "address": "AKPAKPA DODOMEY",
    "responsable": "Félicité NONVIGNON",
    "contacts": 21338589,
    "tel": "",
    "latitude": "",
    "longitude": ""
  },
  {
    "departement": "LITTORAL",
    "commune": "Cotonou",
    "denomination": "Pharmacie Les Cheminots",
    "address": "JONQUET  B.P. : 58",
    "responsable": "Joseph DA-ZOCLANCLOUNON",
    "contacts": 21315173,
    "tel": "",
    "latitude": "",
    "longitude": ""
  },
  {
    "departement": "LITTORAL",
    "commune": "Cotonou",
    "denomination": "Pharmacie Ganhi",
    "address": "Ganhi             B.P. : 194",
    "responsable": "Marie Antoinette DOSSOU",
    "contacts": 21312314,
    "tel": "",
    "latitude": "",
    "longitude": ""
  },
  {
    "departement": "LITTORAL",
    "commune": "Cotonou",
    "denomination": "Pharmacie Jonquet",
    "address": "Jonquet  01 - B.P. : 198",
    "responsable": "Sidikh JOACHIM",
    "contacts": 21312080,
    "tel": "",
    "latitude": "",
    "longitude": ""
  },
  {
    "departement": "LITTORAL",
    "commune": "Cotonou",
    "denomination": "Pharmacie Jak Alédjo",
    "address": "Jak Alédjo 01 - B.P. : 2122",
    "responsable": "Bilikissou Madéjèbi IBOURAÏMA",
    "contacts": 21336103,
    "tel": "",
    "latitude": "",
    "longitude": ""
  },
  {
    "departement": "LITTORAL",
    "commune": "Cotonou",
    "denomination": "Pharmacie De la Mosquée Centrale Zongo",
    "address": "ZONGO          081 - B.P :7021",
    "responsable": "Anna SAMOILOVA épse PADONOU",
    "contacts": 21311828,
    "tel": "",
    "latitude": "",
    "longitude": ""
  },
  {
    "departement": "LITTORAL",
    "commune": "Cotonou",
    "denomination": "Pharmacie Mahuena",
    "address": "01 - B.P. : 960",
    "responsable": "Grâce VARANGO",
    "contacts": 21318481,
    "tel": "",
    "latitude": "",
    "longitude": ""
  },
  {
    "departement": "LITTORAL",
    "commune": "Cotonou",
    "denomination": "Pharmacie St Raphaël du nouveau pont",
    "address": "DEDOKPO  03 - B.P. : 3143",
    "responsable": "NAGO Murielle",
    "contacts": 21331275,
    "tel": "",
    "latitude": "",
    "longitude": ""
  },
  {
    "departement": "LITTORAL",
    "commune": "Cotonou",
    "denomination": "Pharmacie Principale",
    "address": "GBOGBANOU",
    "responsable": "Gisèle Félicité GRIMAUD",
    "contacts": 21313215,
    "tel": "",
    "latitude": "",
    "longitude": ""
  },
  {
    "departement": "LITTORAL",
    "commune": "Cotonou",
    "denomination": "Pharmacie Saint Joseph",
    "address": "MISSEBO",
    "responsable": "Solange Régina IDOHOU",
    "contacts": 95716858,
    "tel": "",
    "latitude": "",
    "longitude": ""
  },
  {
    "departement": "LITTORAL",
    "commune": "Cotonou",
    "denomination": "Pharmacie Vie et santé (transfert)",
    "address": "03 - B.P. : 1008",
    "responsable": "Victoire AGBIDINOUKOUN épse SEGLA",
    "contacts": 21311985,
    "tel": "",
    "latitude": "",
    "longitude": ""
  },
  {
    "departement": "LITTORAL",
    "commune": "Cotonou",
    "denomination": "Pharmacie Vogue",
    "address": "VOGUE  01 - B.P. : 6603",
    "responsable": "Rissi SOUMANOU ADJIBADE",
    "contacts": 21317413,
    "tel": "",
    "latitude": "",
    "longitude": ""
  },
  {
    "departement": "LITTORAL",
    "commune": "Cotonou",
    "denomination": "Pharmacie Du Port",
    "address": "GANHI               01 - B.P. : 578",
    "responsable": "Ghislaine DJIDJOHO Née LOKO",
    "contacts": 95490433,
    "tel": "",
    "latitude": "",
    "longitude": ""
  },
  {
    "departement": "LITTORAL",
    "commune": "Cotonou",
    "denomination": "Pharmacie Zongo",
    "address": "ZONGO   06 - B.P. : 2630",
    "responsable": "Prosper AHONLONSOU",
    "contacts": 21313646,
    "tel": "",
    "latitude": "",
    "longitude": ""
  },
  {
    "departement": "LITTORAL",
    "commune": "Cotonou",
    "denomination": "Pharmacie Aïdjèdo",
    "address": "SAINT-CECILE",
    "responsable": "Madinatou DJIMA",
    "contacts": 21390111,
    "tel": "",
    "latitude": "",
    "longitude": ""
  },
  {
    "departement": "LITTORAL",
    "commune": "Cotonou",
    "denomination": "Pharmacie Dantokpa (Rachat)",
    "address": "Dantokpa  03 - B.P. : 2104",
    "responsable": "AMADJI Nathalie",
    "contacts": "",
    "tel": "",
    "latitude": "",
    "longitude": ""
  },
  {
    "departement": "LITTORAL",
    "commune": "Cotonou",
    "denomination": "Pharmacie De l'Espérance",
    "address": "GBEDJROMEDE  B.P. : 1519",
    "responsable": "Laure Florence TAIROU épse ADEBO",
    "contacts": 21324069,
    "tel": "",
    "latitude": "",
    "longitude": ""
  },
  {
    "departement": "LITTORAL",
    "commune": "Cotonou",
    "denomination": "Pharmacie Fèmi",
    "address": "SAINT CECILE  07- B.P. : 881",
    "responsable": "Feu Joël DOSSOU - YOVO",
    "contacts": 97684731,
    "tel": "",
    "latitude": "",
    "longitude": ""
  },
  {
    "departement": "LITTORAL",
    "commune": "Cotonou",
    "denomination": "Pharmacie Gbèdjromédé",
    "address": "Gbèdjromédé  06- B.P. : 1641",
    "responsable": "Elise EYISSE",
    "contacts": "21 ;321752",
    "tel": "",
    "latitude": "",
    "longitude": ""
  },
  {
    "departement": "LITTORAL",
    "commune": "Cotonou",
    "denomination": "Pharmacie Sikècodji",
    "address": "Sikècodji            01 - B.P. : 985",
    "responsable": "Rafia da-SILVERA",
    "contacts": 21320246,
    "tel": 21320246,
    "latitude": "",
    "longitude": ""
  },
  {
    "departement": "LITTORAL",
    "commune": "Cotonou",
    "denomination": "Pharmacie L’Eternité",
    "address": "WLOLOGUEDE",
    "responsable": "Francine ALAPINI",
    "contacts": 21321737,
    "tel": 21321737,
    "latitude": "6.3777",
    "longitude": "2.41135"
  },
  {
    "departement": "LITTORAL",
    "commune": "Cotonou",
    "denomination": "Pharmacie Sainte Euprasie de VOSSA",
    "address": "VOSSA",
    "responsable": "Fifamin C, Inès ADEOSSI",
    "contacts": 95121402,
    "tel": 95121402,
    "latitude": "",
    "longitude": ""
  },
  {
    "departement": "LITTORAL",
    "commune": "Cotonou",
    "denomination": "Pharmacie Du Boulevard St Michel",
    "address": "St Michel 03 - B.P. : 2733",
    "responsable": "Félicienne SOSSOUMIHEN",
    "contacts": 21314594,
    "tel": 21314594,
    "latitude": "",
    "longitude": ""
  },
  {
    "departement": "LITTORAL",
    "commune": "Cotonou",
    "denomination": "Pharmacie Ste Rita",
    "address": "Ste Rita  03 - B.P.:1597",
    "responsable": "Victoire AGONNOUDE",
    "contacts": 21324230,
    "tel": 21324230,
    "latitude": "6.38202",
    "longitude": "2.40811"
  },
  {
    "departement": "LITTORAL",
    "commune": "Cotonou",
    "denomination": "Pharmacie Vie Nouvelle",
    "address": "Sainte Rita",
    "responsable": "HENADOU Martin",
    "contacts": "",
    "tel": "",
    "latitude": "",
    "longitude": ""
  },
  {
    "departement": "LITTORAL",
    "commune": "Cotonou",
    "denomination": "Pharmacie Agontinkon",
    "address": "Agontinkon",
    "responsable": "Arlette Edna BALLEY",
    "contacts": 21325278,
    "tel": 21325278,
    "latitude": "",
    "longitude": ""
  },
  {
    "departement": "LITTORAL",
    "commune": "Cotonou",
    "denomination": "Pharmacie Agbodjèdo Sèdékon",
    "address": "06-B.P.:2554",
    "responsable": "Marcelline Zinsou MEDE",
    "contacts": 21335445,
    "tel": 21335445,
    "latitude": "",
    "longitude": ""
  },
  {
    "departement": "LITTORAL",
    "commune": "Cotonou",
    "denomination": "Pharmacie St Gabriel",
    "address": "AGONTINKON",
    "responsable": "Francine AKITOYE LAWANI",
    "contacts": 21326767,
    "tel": 21326767,
    "latitude": "6.37684",
    "longitude": "2.40092"
  },
  {
    "departement": "LITTORAL",
    "commune": "Cotonou",
    "denomination": "Pharmacie  - Palace Plus",
    "address": "FIFADJI",
    "responsable": "René Patrick HOUETO",
    "contacts": 21380047,
    "tel": 21380047,
    "latitude": "6.39084",
    "longitude": "2.39774"
  },
  {
    "departement": "LITTORAL",
    "commune": "Cotonou",
    "denomination": "Pharmacie Ste Madeleine Zogbohouè",
    "address": "Zogbohouè 06-B.P.:3079",
    "responsable": "Armand AHOUISSOUSSI",
    "contacts": 90945746,
    "tel": 21386364,
    "latitude": "6.39211",
    "longitude": "2.3828"
  },
  {
    "departement": "LITTORAL",
    "commune": "Cotonou",
    "denomination": "Pharmacie Le Tamaya",
    "address": "FIFADJI 03-B.P.:3463",
    "responsable": "Sika GABA épse AKPETE",
    "contacts": 21382652,
    "tel": 21382652,
    "latitude": "6.39066",
    "longitude": "2.39338"
  },
  {
    "departement": "LITTORAL",
    "commune": "Cotonou",
    "denomination": "Pharmacie Zogbo",
    "address": "Zogbo 03-B.P.:0103",
    "responsable": "Emma HOUNKPONOU",
    "contacts": 21303693,
    "tel": 21303693,
    "latitude": "6.3032",
    "longitude": "2.38794"
  },
  {
    "departement": "LITTORAL",
    "commune": "Cotonou",
    "denomination": "Pharmacie Sainteté à l'Eternel",
    "address": "KINDONOU",
    "responsable": "MEGNIGBETO O,Thècle Léa",
    "contacts": 61325353,
    "tel": 61325353,
    "latitude": "6.39259",
    "longitude": "2.36068"
  },
  {
    "departement": "LITTORAL",
    "commune": "Cotonou",
    "denomination": "Pharmacie De l'Amitié",
    "address": "CASSE-AUTO",
    "responsable": "Jeanne B. AVLESSI",
    "contacts": 21300512,
    "tel": 21300512,
    "latitude": "6.38132",
    "longitude": "2.37947"
  },
  {
    "departement": "LITTORAL",
    "commune": "Cotonou",
    "denomination": "Pharmacie Renouveau",
    "address": "ZOGBO           07-B.P.:0306",
    "responsable": "Charlotte H. Hortense AKPOVO",
    "contacts": 95287273,
    "tel": 95287273,
    "latitude": "6.38683",
    "longitude": "2.38454"
  },
  {
    "departement": "LITTORAL",
    "commune": "Cotonou",
    "denomination": "Pharmacie AKOSSOMBO",
    "address": "VEDOKO  04BP1347",
    "responsable": "HOUVI Joëlle",
    "contacts": 21381107,
    "tel": 21381107,
    "latitude": "6.37824",
    "longitude": "2.3902"
  },
  {
    "departement": "LITTORAL",
    "commune": "Cotonou",
    "denomination": "Pharmacie Ste Famille",
    "address": "ZOGBOHOUE",
    "responsable": "Ida AIVODJI",
    "contacts": "",
    "tel": "",
    "latitude": "6.38816",
    "longitude": "2.37466"
  },
  {
    "departement": "LITTORAL",
    "commune": "Cotonou",
    "denomination": "Pharmacie Vèdoko",
    "address": "VEDOKO",
    "responsable": "Cyrille AHOSSI",
    "contacts": 21301512,
    "tel": 21301512,
    "latitude": "6.38198",
    "longitude": "2.39126"
  },
  {
    "departement": "LITTORAL",
    "commune": "Cotonou",
    "denomination": "Pharmacie Kindonou",
    "address": "KINDONOU",
    "responsable": "Alfred DAVAKAN",
    "contacts": 21380115,
    "tel": 21380115,
    "latitude": "6.39209",
    "longitude": "2.36487"
  },
  {
    "departement": "LITTORAL",
    "commune": "Cotonou",
    "denomination": "Pharmacie Fifadji",
    "address": "SAINTE RITA",
    "responsable": "Louis H. AKPLOGAN",
    "contacts": 21381815,
    "tel": 21381815,
    "latitude": "6.38614",
    "longitude": "2.40456"
  },
  {
    "departement": "LITTORAL",
    "commune": "Cotonou",
    "denomination": "Pharmacie Alafia",
    "address": "SIKECODJI    01- B.P.:2392",
    "responsable": "Ida BADOU née AHO",
    "contacts": 21323442,
    "tel": "",
    "latitude": "6.36912",
    "longitude": "2.41545"
  },
  {
    "departement": "LITTORAL",
    "commune": "Cotonou",
    "denomination": "Pharmacie AMEN",
    "address": "Saint Jean 09 BP 695",
    "responsable": "ADANKLOUNON Philippe R,",
    "contacts": 67478505,
    "tel": "",
    "latitude": "6.36589",
    "longitude": "2.41654"
  },
  {
    "departement": "LITTORAL",
    "commune": "Cotonou",
    "denomination": "Pharmacie Houéyihô",
    "address": "",
    "responsable": "Jeannette V. ADANDE née de SOUZA",
    "contacts": 21301810,
    "tel": "",
    "latitude": "",
    "longitude": ""
  },
  {
    "departement": "LITTORAL",
    "commune": "Cotonou",
    "denomination": "Pharmacie Gbégamey",
    "address": "GBEGAMEY06-B.P.:2022",
    "responsable": "Abiba BATOKO épse YACOUBOU",
    "contacts": 21303249,
    "tel": "",
    "latitude": "6.36339",
    "longitude": "2.40843"
  },
  {
    "departement": "LITTORAL",
    "commune": "Cotonou",
    "denomination": "Pharmacie De la Paix",
    "address": "GBEGAMEY  02-B.P.:8065",
    "responsable": "Cosme HOUETO",
    "contacts": 21303865,
    "tel": "",
    "latitude": "",
    "longitude": ""
  },
  {
    "departement": "LITTORAL",
    "commune": "Cotonou",
    "denomination": "Pharmacie Du Rond Point",
    "address": "GBEGAMEY  B.P. : 1305",
    "responsable": "Fatima ALAOFE",
    "contacts": 21302709,
    "tel": "",
    "latitude": "6.36261",
    "longitude": "2.41383"
  },
  {
    "departement": "LITTORAL",
    "commune": "Cotonou",
    "denomination": "Pharmacie Ste Foi",
    "address": "VODJE 02-B.P.:2036",
    "responsable": "Claudette DOMINGO",
    "contacts": 21308126,
    "tel": 95950742,
    "latitude": "",
    "longitude": ""
  },
  {
    "departement": "LITTORAL",
    "commune": "Cotonou",
    "denomination": "Pharmacie Saint - Jean",
    "address": "ZONGO           01 - B.P. : 20",
    "responsable": "Dominique Justin d'ALMEIDA",
    "contacts": 21313049,
    "tel": 21313987,
    "latitude": "",
    "longitude": ""
  },
  {
    "departement": "LITTORAL",
    "commune": "Cotonou",
    "denomination": "Pharmacie St Louis",
    "address": "CHAMP DE FOI",
    "responsable": "Sylviane M.B. AGONHESSOU",
    "contacts": 21307446,
    "tel": 21307446,
    "latitude": "6.35438",
    "longitude": "2.40742"
  },
  {
    "departement": "LITTORAL",
    "commune": "Cotonou",
    "denomination": "Pharmacie Ste Philomène",
    "address": "GBEGAMEY",
    "responsable": "Eloïse Constance WHANNOU",
    "contacts": 21317133,
    "tel": 21317133,
    "latitude": "",
    "longitude": ""
  },
  {
    "departement": "LITTORAL",
    "commune": "Cotonou",
    "denomination": "Pharmacie Camp Guézo",
    "address": "ZONGO NINA",
    "responsable": "Elyse Ablavi A. KINKINGNEHUN",
    "contacts": 21313555,
    "tel": 21315552,
    "latitude": "",
    "longitude": ""
  },
  {
    "departement": "LITTORAL",
    "commune": "Cotonou",
    "denomination": "Pharmacie Cadjèhoun Ex-Vodjè",
    "address": "Cadjèhoun",
    "responsable": "Zarath MALIKI",
    "contacts": 21300055,
    "tel": "",
    "latitude": "6.3611",
    "longitude": "2.39758"
  },
  {
    "departement": "LITTORAL",
    "commune": "Cotonou",
    "denomination": "Pharmacie Les Cocotiers",
    "address": "COCOTIER",
    "responsable": "BABADAN Kpodji Rodrigue",
    "contacts": 21300692,
    "tel": "",
    "latitude": "6.35366",
    "longitude": "2.3989"
  },
  {
    "departement": "LITTORAL",
    "commune": "Cotonou",
    "denomination": "Pharmacie Fidjrossè",
    "address": "AIBATE",
    "responsable": "Léontine IDOHOU",
    "contacts": 21301973,
    "tel": "",
    "latitude": "",
    "longitude": ""
  },
  {
    "departement": "LITTORAL",
    "commune": "Cotonou",
    "denomination": "Pharmacie La Madone",
    "address": "FIDJROSSE CALVAIRE",
    "responsable": "Joëlle I. A. HOUNDETE",
    "contacts": 21308404,
    "tel": "",
    "latitude": "",
    "longitude": ""
  },
  {
    "departement": "LITTORAL",
    "commune": "Cotonou",
    "denomination": "Pharmacie De la Haie Vive",
    "address": "HAIE-VIVE",
    "responsable": "Marouf Raïmi OSSENI",
    "contacts": 21301025,
    "tel": 21300241,
    "latitude": "6.35682",
    "longitude": "2.39994"
  },
  {
    "departement": "LITTORAL",
    "commune": "Cotonou",
    "denomination": "Pharmacie Les Cocotiers",
    "address": "COCOTIER 08 - B.P. : 7135",
    "responsable": "BABADAN Kpodji Rodrigue",
    "contacts": 21300692,
    "tel": 21300692,
    "latitude": "",
    "longitude": ""
  },
  {
    "departement": "LITTORAL",
    "commune": "Cotonou",
    "denomination": "Pharmacie Don de Dieu de Cotonou",
    "address": "Aïbatin II",
    "responsable": "ACHADE Madeleine",
    "contacts": 95966842,
    "tel": 95966842,
    "latitude": "",
    "longitude": ""
  },
  {
    "departement": "LITTORAL",
    "commune": "Cotonou",
    "denomination": "Pharmacie Fidjrossè",
    "address": "AIBATE             03- B.P. : 514",
    "responsable": "Léontine IDOHOU",
    "contacts": 21301973,
    "tel": 21301973,
    "latitude": "",
    "longitude": ""
  },
  {
    "departement": "LITTORAL",
    "commune": "Cotonou",
    "denomination": "Pharmacie La Madone",
    "address": "FIDJROSSE CALVAIRE",
    "responsable": "Joëlle Isabelle Adéchoubou HOUNDETE",
    "contacts": 21308404,
    "tel": 21308404,
    "latitude": "6.35774",
    "longitude": "2.37028"
  },
  {
    "departement": "LITTORAL",
    "commune": "Cotonou",
    "denomination": "Pharmacie St Mathieu de l'Aéroport",
    "address": "CADJEHOUN",
    "responsable": "Marcel Koffi HOUNDONOUGBO",
    "contacts": 21300420,
    "tel": 21300420,
    "latitude": "",
    "longitude": ""
  },
  {
    "departement": "LITTORAL",
    "commune": "Cotonou",
    "denomination": "Pharmacie Sainte Victoire (Ex Agla)",
    "address": "AIBATE 03 - B.P. : 2092",
    "responsable": "Victoire ADJATI née HOUNSOU",
    "contacts": 90053080,
    "tel": 95846908,
    "latitude": "",
    "longitude": ""
  },
  {
    "departement": "LITTORAL",
    "commune": "Cotonou",
    "denomination": "Pharmacie Adéchina",
    "address": "MARO-MILITAIRE01 - B.P. : 2269",
    "responsable": "Edgard PRUDENCIO",
    "contacts": 21321565,
    "tel": 21321565,
    "latitude": "6.36715",
    "longitude": "2.42019"
  },
  {
    "departement": "LITTORAL",
    "commune": "Cotonou",
    "denomination": "Pharmacie Les Archanges",
    "address": "FIDJROSSE HLAZOUNTO",
    "responsable": "Oscar AKOGBETO",
    "contacts": 97497703,
    "tel": 63608482,
    "latitude": "6.37461",
    "longitude": "2.3504"
  },
  {
    "departement": "LITTORAL",
    "commune": "Cotonou",
    "denomination": "Pharmacie Fidjrossè Plage",
    "address": "FIYEGNON",
    "responsable": "Herman Adjèhoda SOSSOU",
    "contacts": 95453321,
    "tel": 95453321,
    "latitude": "",
    "longitude": ""
  },
  {
    "departement": "LITTORAL",
    "commune": "Cotonou",
    "denomination": "Pharmacie Cristal Santé-Agla Akplomey",
    "address": "AGLA APLOME 071- B.P. :300",
    "responsable": "Lucienne Arsène L. AMOUZOUN",
    "contacts": 95497092,
    "tel": 21350311,
    "latitude": "6.37822",
    "longitude": "2.35355"
  },
  {
    "departement": "LITTORAL",
    "commune": "Cotonou",
    "denomination": "Pharmacie Océane",
    "address": "FIDJROSSE CALVAIRE",
    "responsable": "Arlette Anicette BALLEY",
    "contacts": 95869677,
    "tel": 21309334,
    "latitude": "6.35689",
    "longitude": "2.36513"
  },
  {
    "departement": "LITTORAL",
    "commune": "Cotonou",
    "denomination": "Pharmacie Oladjouan",
    "address": "AGLA          C/3508 Zone A",
    "responsable": "LADJOUHAN Ziad Zizi",
    "contacts": 66049533,
    "tel": 66049533,
    "latitude": "6.38508",
    "longitude": "2.37414"
  },
  {
    "departement": "LITTORAL",
    "commune": "Cotonou",
    "denomination": "Pharmacie Les Pylones",
    "address": "AGLA LES PYLONES",
    "responsable": "Edith Joëlle EZIN",
    "contacts": 21381514,
    "tel": 21381514,
    "latitude": "6.3809",
    "longitude": "2.37248"
  },
  {
    "departement": "LITTORAL",
    "commune": "Cotonou",
    "denomination": "Pharmacie Salem -Hlazounto",
    "address": "AGLA HLAZOUTO",
    "responsable": "Esther Diana Dédévi AJAVON",
    "contacts": "95408833/",
    "tel": 21352720,
    "latitude": "6.36936",
    "longitude": "2.36072"
  },
  {
    "departement": "LITTORAL",
    "commune": "Cotonou",
    "denomination": "Pharmacie Luli Luli Sarl",
    "address": "AGLA HLAZOUTO",
    "responsable": "Alexandre Boco DJEDJI",
    "contacts": 95956665,
    "tel": 95956665,
    "latitude": "6.37189",
    "longitude": "2.35682"
  },
  {
    "departement": "LITTORAL",
    "commune": "Cotonou",
    "denomination": "Pharmacie Akogbato",
    "address": "Akogbato",
    "responsable": "Justine APOVO",
    "contacts": 21330547,
    "tel": 21330547,
    "latitude": "",
    "longitude": ""
  },
  {
    "departement": "LITTORAL",
    "commune": "Cotonou",
    "denomination": "Pharmacie Saint Etienne d'Agla",
    "address": "AGLA",
    "responsable": "ABIOU Grâce",
    "contacts": 95833075,
    "tel": 95833075,
    "latitude": "6.3801",
    "longitude": "2.36393"
  },
  {
    "departement": "MONO",
    "commune": "Comè",
    "denomination": "Pharmacie La Nériad",
    "address": "Comè",
    "responsable": "MADOKPON Mêgnissè",
    "contacts": 61169891,
    "tel": 65807872,
    "latitude": "",
    "longitude": ""
  },
  {
    "departement": "MONO",
    "commune": "Comè",
    "denomination": "Grande Pharmacie de Comè Sarl",
    "address": "Comè",
    "responsable": "Fabrice Kadjogbé ODJARADO",
    "contacts": 97082036,
    "tel": 22430290,
    "latitude": "",
    "longitude": ""
  },
  {
    "departement": "MONO",
    "commune": "Houeyogbe",
    "denomination": "Pharmacie La Prunelle de l’Eternel",
    "address": "SE",
    "responsable": "Abdelazize Okéladji LAWAL",
    "contacts": 96474084,
    "tel": 96474084,
    "latitude": "",
    "longitude": ""
  },
  {
    "departement": "MONO",
    "commune": "Houeyogbe",
    "denomination": "Pharmacie SAHOUE",
    "address": "ADROME",
    "responsable": "Sochi Marie HOUNSOU",
    "contacts": 65585252,
    "tel": 66755656,
    "latitude": "",
    "longitude": ""
  },
  {
    "departement": "MONO",
    "commune": "Grand-Popo",
    "denomination": "Pharmacie Notre Dame du Perpétuel Secours",
    "address": "HILLACONDJI",
    "responsable": "ADIGBIDI",
    "contacts": 97949672,
    "tel": 97949672,
    "latitude": "",
    "longitude": ""
  },
  {
    "departement": "MONO",
    "commune": "Lokossa",
    "denomination": "Nouvelle Pharmacie  Zogbédji",
    "address": "Zogbédji",
    "responsable": "BAH TASSOU BAGNAN",
    "contacts": 22411471,
    "tel": 22411471,
    "latitude": "",
    "longitude": ""
  },
  {
    "departement": "MONO",
    "commune": "Lokossa",
    "denomination": "Pharmacie Le Bon Samaritain",
    "address": "Lokossa",
    "responsable": "Ernest DOSSOU",
    "contacts": 22411321,
    "tel": 22411321,
    "latitude": "",
    "longitude": ""
  },
  {
    "departement": "OUEME",
    "commune": "Adjarra",
    "denomination": "Pharmacie Agata Grace Divine",
    "address": "Agata",
    "responsable": "Abègnonhou Mariane Elodie HONFOGA",
    "contacts": 97339969,
    "tel": 20062982,
    "latitude": "6.50808",
    "longitude": "2.6464"
  },
  {
    "departement": "OUEME",
    "commune": "Adjarra",
    "denomination": "Pharmacie Centrale d’Adjarra",
    "address": "Adjarra",
    "responsable": "KEKE Agossou Cyprien",
    "contacts": 96852790,
    "tel": 65649671,
    "latitude": "6.48521",
    "longitude": "2.59668"
  },
  {
    "departement": "OUEME",
    "commune": "Adjarra",
    "denomination": "Pharmacie Malanhoui",
    "address": "Malanhoui",
    "responsable": "AHOKPOSSI Narcisse",
    "contacts": 97446306,
    "tel": 95689932,
    "latitude": "6.54719",
    "longitude": "2.58747"
  },
  {
    "departement": "OUEME",
    "commune": "Adjohoun",
    "denomination": "Pharmacie De la Vallée de l’Ouémé",
    "address": "Azowlissè",
    "responsable": "Gisèle Lydie LISSANON VODEME",
    "contacts": 97694813,
    "tel": 97694813,
    "latitude": "6.50643",
    "longitude": "2.61642"
  },
  {
    "departement": "OUEME",
    "commune": "Dangbo",
    "denomination": "Pharmacie Les Anges",
    "address": "DANGBO",
    "responsable": "Jules D. OUSSOUGOE",
    "contacts": 97895988,
    "tel": 97895988,
    "latitude": "6.51122",
    "longitude": "2.65005"
  },
  {
    "departement": "OUEME",
    "commune": "Dangbo",
    "denomination": "Pharmacie Vakon",
    "address": "Vakon 01BP2936 PN",
    "responsable": "MIKODE Hermione",
    "contacts": 95408705,
    "tel": 95408705,
    "latitude": "6.36393",
    "longitude": "2.46229"
  },
  {
    "departement": "OUEME",
    "commune": "Akpro-Missérété",
    "denomination": "Pharmacie Kpèdétin",
    "address": "APRO-MISSERETE",
    "responsable": "Jonas L.TOUDONOU",
    "contacts": 20000331,
    "tel": 20000331,
    "latitude": "6.50632",
    "longitude": "2.59911"
  },
  {
    "departement": "OUEME",
    "commune": "Avrankou",
    "denomination": "Pharmacie Nouvel Espoir (Ex victoria)",
    "address": "AVRANKOU",
    "responsable": "Eusèbe D. AGONKPAHOUN",
    "contacts": 9788238,
    "tel": 20082800,
    "latitude": "",
    "longitude": ""
  },
  {
    "departement": "OUEME",
    "commune": "Porto-Novo",
    "denomination": "Pharmacie Koutongbé (Ex- National)",
    "address": "KOUTONGBE",
    "responsable": "Yacoubou Abioye ADJE",
    "contacts": 20220054,
    "tel": 20220054,
    "latitude": "6.9318",
    "longitude": "2.63798"
  },
  {
    "departement": "OUEME",
    "commune": "Porto-Novo",
    "denomination": "Pharmacie Centrale Kokoyè",
    "address": "KOKOYE B.P: 177",
    "responsable": "C. ZOMAHOUN",
    "contacts": 20213074,
    "tel": 20213074,
    "latitude": "6.47695",
    "longitude": "2.62257"
  },
  {
    "departement": "OUEME",
    "commune": "Porto-Novo",
    "denomination": "Pharmacie Catchi",
    "address": "CATCHI B.P: 67",
    "responsable": "Lati ADEBO",
    "contacts": 20222392,
    "tel": 20222392,
    "latitude": "6.48447",
    "longitude": "2.62056"
  },
  {
    "departement": "OUEME",
    "commune": "Porto-Novo",
    "denomination": "Pharmacie Du Grand Marché",
    "address": "GRAND-MARCHE",
    "responsable": "HOUNDJO Gylchrist",
    "contacts": 20213438,
    "tel": 20213438,
    "latitude": "6.47218",
    "longitude": "2.64109"
  },
  {
    "departement": "OUEME",
    "commune": "Porto-Novo",
    "denomination": "Pharmacie Suru - Léré",
    "address": "SURU-LERE",
    "responsable": "Virginie GBADAMASSI",
    "contacts": 20213098,
    "tel": 20213098,
    "latitude": "",
    "longitude": ""
  },
  {
    "departement": "OUEME",
    "commune": "Porto-Novo",
    "denomination": "Pharmacie Les Palmiers",
    "address": "OUANDO",
    "responsable": "Mystoura AKPLOGAN",
    "contacts": 20223663,
    "tel": 20223663,
    "latitude": "6.5041",
    "longitude": "2.61106"
  },
  {
    "departement": "OUEME",
    "commune": "Porto-Novo",
    "denomination": "Pharmacie Kandévié (Dédès)",
    "address": "B.P. : 1267",
    "responsable": "Feu Stéphanie HOUNSOU-VE",
    "contacts": 20215088,
    "tel": 20215088,
    "latitude": "6.47382",
    "longitude": "2.62606"
  },
  {
    "departement": "OUEME",
    "commune": "Porto-Novo",
    "denomination": "Pharmacie Oganla",
    "address": "B.P. : 607",
    "responsable": "Léopoldine da - SILVA",
    "contacts": 20214418,
    "tel": 20214418,
    "latitude": "6.47512",
    "longitude": "2.61803"
  },
  {
    "departement": "OUEME",
    "commune": "Porto-Novo",
    "denomination": "Pharmacie Olayèmi",
    "address": "Guévié",
    "responsable": "HOUETO O, Lydie",
    "contacts": 96443107,
    "tel": 96443107,
    "latitude": "6.49634",
    "longitude": "2.62999"
  },
  {
    "departement": "OUEME",
    "commune": "Porto-Novo",
    "denomination": "Pharmacie Olatoundji",
    "address": "B.P. : 1226",
    "responsable": "Saliou LATOUNDJI",
    "contacts": 20223858,
    "tel": 20223858,
    "latitude": "6.48509",
    "longitude": "2.62694"
  },
  {
    "departement": "OUEME",
    "commune": "Porto-Novo",
    "denomination": "Pharmacie Agbokou",
    "address": "B.P. : 110",
    "responsable": "Adéline Valérie AGBOTON",
    "contacts": 20214855,
    "tel": 20214855,
    "latitude": "6.47222",
    "longitude": "2.64126"
  },
  {
    "departement": "OUEME",
    "commune": "Porto-Novo",
    "denomination": "PharmacieLe Prestige du Pont",
    "address": "HONME",
    "responsable": "TAIROU Kazirath Mariette Bimbola",
    "contacts": 96622227,
    "tel": 94175555,
    "latitude": "6.47049",
    "longitude": "2.62108"
  },
  {
    "departement": "OUEME",
    "commune": "Porto-Novo",
    "denomination": "Pharmacie Boladji",
    "address": "B.P. : 16",
    "responsable": "Safiatou  Y. BAKARY",
    "contacts": 20214988,
    "tel": 20214988,
    "latitude": "6.47175",
    "longitude": "2.62632"
  },
  {
    "departement": "OUEME",
    "commune": "Porto-Novo",
    "denomination": "Pharmacie BADIROU de TCHINVIE",
    "address": "TCHINVIE",
    "responsable": "ADJIBADE BADIROU Izbath Armelle",
    "contacts": 67458575,
    "tel": 67458575,
    "latitude": "6.49658",
    "longitude": "2.63932"
  },
  {
    "departement": "OUEME",
    "commune": "Porto-Novo",
    "denomination": "Pharmacie Vêkpa",
    "address": "B.P. : 1010",
    "responsable": "Moustapha Ibrahim ABLOH",
    "contacts": 20213655,
    "tel": 20213655,
    "latitude": "",
    "longitude": ""
  },
  {
    "departement": "OUEME",
    "commune": "Porto-Novo",
    "denomination": "Pharmacie Du Boulevard Djassin",
    "address": "B.P. : 786",
    "responsable": "Ismahinl ONIFADE",
    "contacts": 20212757,
    "tel": 20212757,
    "latitude": "6.47757",
    "longitude": "2.6057"
  },
  {
    "departement": "OUEME",
    "commune": "Porto-Novo",
    "denomination": "Pharmacie Dona (Transfert)",
    "address": "B.P. : 454",
    "responsable": "Mathias SOUDE",
    "contacts": 20223385,
    "tel": 20223385,
    "latitude": "",
    "longitude": ""
  },
  {
    "departement": "OUEME",
    "commune": "Porto-Novo",
    "denomination": "Pharmacie Adjibadé",
    "address": "02 -B.P. :173",
    "responsable": "Soumaïla IKILILOU",
    "contacts": 20222002,
    "tel": 20222002,
    "latitude": "6.49132",
    "longitude": "2.62547"
  },
  {
    "departement": "OUEME",
    "commune": "Porto-Novo",
    "denomination": "Pharmacie L'Unité",
    "address": "",
    "responsable": "Raïma ODJO",
    "contacts": "",
    "tel": "",
    "latitude": "",
    "longitude": ""
  },
  {
    "departement": "OUEME",
    "commune": "Porto-Novo",
    "denomination": "Pharmacie Toffa 1er",
    "address": "B.P. : 104",
    "responsable": "Appoline AGBENONCI",
    "contacts": 20214554,
    "tel": 20214554,
    "latitude": "6.47744",
    "longitude": "2.63364"
  },
  {
    "departement": "OUEME",
    "commune": "Porto-Novo",
    "denomination": "Pharmacie Place Bayol",
    "address": "B.P. : 345",
    "responsable": "Charlemagne AHOUANDJINOU",
    "contacts": 20214773,
    "tel": 20214773,
    "latitude": "6.4274",
    "longitude": "2.62121"
  },
  {
    "departement": "OUEME",
    "commune": "Porto-Novo",
    "denomination": "Pharmacie  Adjarra Docodji UPAO",
    "address": "Adjégounlè 01BP 948 PN",
    "responsable": "FAGBEMI Joel Martial",
    "contacts": 64330000,
    "tel": 64330101,
    "latitude": "6.48506",
    "longitude": "2.62709"
  },
  {
    "departement": "OUEME",
    "commune": "Porto-Novo",
    "denomination": "Pharmacie Cristal Dodji",
    "address": "B.P. : 697",
    "responsable": "Christophe Elie ODJO",
    "contacts": 20224103,
    "tel": 20224103,
    "latitude": "6.50087",
    "longitude": "2.63045"
  },
  {
    "departement": "OUEME",
    "commune": "Porto-Novo",
    "denomination": "Pharmacie St Raymond du Marché Agata",
    "address": "",
    "responsable": "CAPO CHICHI AGBOTON Clotilde",
    "contacts": 95568827,
    "tel": 95568827,
    "latitude": "",
    "longitude": ""
  },
  {
    "departement": "OUEME",
    "commune": "Porto-Novo",
    "denomination": "Pharmacie Sainte Marie",
    "address": "B.P. : 1674",
    "responsable": "Chantal Sylvie ALLADAYE",
    "contacts": 20223816,
    "tel": 20223816,
    "latitude": "",
    "longitude": ""
  },
  {
    "departement": "OUEME",
    "commune": "Porto-Novo",
    "denomination": "Pharmacie DJEGAN KPEVI",
    "address": "DJEGAN KPEVI",
    "responsable": "Mohamed Kèfil SOUNKERE",
    "contacts": 63633535,
    "tel": 63633535,
    "latitude": "6.50817",
    "longitude": "2.61145"
  },
  {
    "departement": "OUEME",
    "commune": "Porto-Novo",
    "denomination": "Pharmacie De l'Emmanuel",
    "address": "01 - B.P. : 2232",
    "responsable": "Déo - Gratias AMOUSSOU",
    "contacts": 20226729,
    "tel": 20226729,
    "latitude": "",
    "longitude": ""
  },
  {
    "departement": "OUEME",
    "commune": "Porto-Novo",
    "denomination": "Pharmacie Tokpota 2 - Davo",
    "address": "01 - B.P. : 653",
    "responsable": "Sidikath M.M.   SAÏZONOU épse SAGBO",
    "contacts": 20222315,
    "tel": 20222315,
    "latitude": "6.52155",
    "longitude": "2.61321"
  },
  {
    "departement": "OUEME",
    "commune": "Sèmè-Kpodji",
    "denomination": "Pharmacie Dowa",
    "address": "07- B.P. : 0319",
    "responsable": "Cyr Marceau Pierre GBESSOU",
    "contacts": 95280562,
    "tel": 97549998,
    "latitude": "6.51297",
    "longitude": "2.61484"
  },
  {
    "departement": "OUEME",
    "commune": "Sèmè-Kpodji",
    "denomination": "Pharmacie Carrefour Gbodjè",
    "address": "",
    "responsable": "Malick ADJIBOLA",
    "contacts": 20247061,
    "tel": 20247061,
    "latitude": "6.38022",
    "longitude": "2.59761"
  },
  {
    "departement": "OUEME",
    "commune": "Sèmè-Kpodji",
    "denomination": "Pharmacie OWODE",
    "address": "OWODE",
    "responsable": "AVODE Nadège",
    "contacts": 97581825,
    "tel": 98665818,
    "latitude": "",
    "longitude": ""
  },
  {
    "departement": "OUEME",
    "commune": "Sèmè-Kpodji",
    "denomination": "Pharmacie Notre Dame de l'Atlantique",
    "address": "DJREGBE",
    "responsable": "Blaise KOUDOGBO",
    "contacts": "",
    "tel": "",
    "latitude": "",
    "longitude": ""
  },
  {
    "departement": "OUEME",
    "commune": "Sèmè-Kpodji",
    "denomination": "Pharmacie Kraké Plage",
    "address": "Kraké Plage B.P 115",
    "responsable": "Hugues T.VIAINON",
    "contacts": 96139933,
    "tel": 96139933,
    "latitude": "",
    "longitude": ""
  },
  {
    "departement": "OUEME",
    "commune": "Sèmè-Kpodji",
    "denomination": "Pharmacie Nouvel Horizon",
    "address": "Sèmè-Kpodji",
    "responsable": "Eugène DEGUENON",
    "contacts": 20240067,
    "tel": 20240067,
    "latitude": "",
    "longitude": ""
  },
  {
    "departement": "OUEME",
    "commune": "Sèmè-Kpodji",
    "denomination": "Pharmacie Dona - Déï",
    "address": "PK 14",
    "responsable": "Jean - Marie TOKOUDAGBA",
    "contacts": 21337083,
    "tel": 21337083,
    "latitude": "",
    "longitude": ""
  },
  {
    "departement": "OUEME",
    "commune": "Sèmè-Kpodji",
    "denomination": "Pharmacie Les Chérubins",
    "address": "",
    "responsable": "K. Régis Michaël AMEGEE",
    "contacts": "",
    "tel": "",
    "latitude": "",
    "longitude": ""
  },
  {
    "departement": "OUEME",
    "commune": "Sèmè-Kpodji",
    "denomination": "Pharmacie Fontaine de Jouvence",
    "address": "SEKANDJI",
    "responsable": "ALAVO Nadège",
    "contacts": 97671433,
    "tel": 97671433,
    "latitude": "",
    "longitude": ""
  },
  {
    "departement": "OUEME",
    "commune": "Sèmè-Kpodji",
    "denomination": "Pharmacie Agblangandan",
    "address": "Agblangandan",
    "responsable": "Madinatou DENDE BADIROU",
    "contacts": 95575183,
    "tel": 90926270,
    "latitude": "6.375",
    "longitude": "2.486"
  },
  {
    "departement": "OUEME",
    "commune": "Sèmè-Kpodji",
    "denomination": "Pharmacie Val des Graces Sarl",
    "address": "",
    "responsable": "Syadath Suruléré Omoniyi BOURAÏMA",
    "contacts": 21155483,
    "tel": 97263660,
    "latitude": "6.53016",
    "longitude": "2.66035"
  },
  {
    "departement": "OUEME",
    "commune": "Sèmè-Kpodji",
    "denomination": "Pharmacie L'Harmonie",
    "address": "Agblangandan M/ AFOLABI",
    "responsable": "LIADY Suad",
    "contacts": 97225324,
    "tel": 97225324,
    "latitude": "6.368",
    "longitude": "2.496"
  },
  {
    "departement": "OUEME",
    "commune": "Sèmè-Kpodji",
    "denomination": "Pharmacie Saint Pierre de SEMEKPODJI",
    "address": "Briade routière de SEME KPODJI",
    "responsable": "SABI BOUN Saidou",
    "contacts": 94220626,
    "tel": 94220626,
    "latitude": "6.37812",
    "longitude": "2.59411"
  },
  {
    "departement": "OUEME",
    "commune": "Sèmè-Kpodji",
    "denomination": "Pharmacie DJEFFA",
    "address": "Djeffa",
    "responsable": "GOUNOU Solange",
    "contacts": 96271879,
    "tel": 96271879,
    "latitude": "",
    "longitude": ""
  },
  {
    "departement": "OUEME",
    "commune": "Sèmè-Kpodji",
    "denomination": "Pharmacoe Ekpe",
    "address": "Ekpe",
    "responsable": "Remi AHOLOUKPE",
    "contacts": 96821974,
    "tel": 96821974,
    "latitude": "",
    "longitude": ""
  },
  {
    "departement": "PLATEAU",
    "commune": "Ifangni",
    "denomination": "Pharmacie La Frontière (Igolo)",
    "address": "IGOLO",
    "responsable": "Armand Mohammed Randolph VIOU",
    "contacts": 20263264,
    "tel": 20263264,
    "latitude": "6.64061",
    "longitude": "2.73107"
  },
  {
    "departement": "PLATEAU",
    "commune": "Sakété",
    "denomination": "Pharmacie Oredola de Sakété",
    "address": "SAKETE         B.P. : 45",
    "responsable": "Lisette Corine COOVI",
    "contacts": 97542324,
    "tel": 20266044,
    "latitude": "",
    "longitude": ""
  },
  {
    "departement": "PLATEAU",
    "commune": "Kétou",
    "denomination": "Pharmacie Principale de Kétou",
    "address": "KETOU",
    "responsable": "Dèhoumon Louis  KOUKPEMEDJI",
    "contacts": 20082924,
    "tel": 97481761,
    "latitude": "7,36852",
    "longitude": "2.74063"
  },
  {
    "departement": "PLATEAU",
    "commune": "Pobè",
    "denomination": "Pharmacie La Grâce Divine Pobè",
    "address": "POBE",
    "responsable": "Dieudonnée A. GBEZENOU",
    "contacts": 20250084,
    "tel": 20250084,
    "latitude": "6.38154",
    "longitude": "2.60203"
  },
  {
    "departement": "PLATEAU",
    "commune": "Adja-Ouèrè",
    "denomination": "Pharmacie Olabissi",
    "address": "AJA-OUERE",
    "responsable": "Olabissi Pancras ELEGBEDE",
    "contacts": 94012239,
    "tel": 94012239,
    "latitude": "6.89657",
    "longitude": "2.62085"
  },
  {
    "departement": "ZOU",
    "commune": "Djidja",
    "denomination": "Pharmacie Péniel de Djidja",
    "address": "Djidja",
    "responsable": "Obassandjo F. Benoît TAO",
    "contacts": 96240960,
    "tel": 96009030,
    "latitude": "",
    "longitude": ""
  },
  {
    "departement": "ZOU",
    "commune": "Abomey",
    "denomination": "Pharmacie Azalli II",
    "address": "AZALLI         B.P. : 259",
    "responsable": "Carla Maria Josefa Mendes épse AKPAMOLI",
    "contacts": 22500370,
    "tel": 22500370,
    "latitude": "",
    "longitude": ""
  },
  {
    "departement": "ZOU",
    "commune": "Abomey",
    "denomination": "Pharmacie Du Marché",
    "address": "B.P. : 17",
    "responsable": "Victor Léopold MARTIN",
    "contacts": 22500316,
    "tel": 22500316,
    "latitude": "",
    "longitude": ""
  },
  {
    "departement": "ZOU",
    "commune": "Abomey",
    "denomination": "Pharmacie Place Goho",
    "address": "PLACE GOHO   B.P. : 2165",
    "responsable": "Yaou AYENON",
    "contacts": 22500357,
    "tel": 22500357,
    "latitude": "",
    "longitude": ""
  },
  {
    "departement": "ZOU",
    "commune": "Abomey",
    "denomination": "Pharmacie Saint Luc",
    "address": "HOUAWE      B.P. : 2265",
    "responsable": "Eddy Z. GNACADJA",
    "contacts": 97348575,
    "tel": 22501904,
    "latitude": "",
    "longitude": ""
  },
  {
    "departement": "ZOU",
    "commune": "Agbangnizoun",
    "denomination": "Pharmacie Nontinmin",
    "address": "Agbangnizoun",
    "responsable": "Nadège A.D.M.E. ZOGO DADOUDA",
    "contacts": 66383364,
    "tel": 65757959,
    "latitude": "",
    "longitude": ""
  },
  {
    "departement": "ZOU",
    "commune": "Agbangnizoun",
    "denomination": "Pharmacie Azonnigbo",
    "address": "B.P. :91",
    "responsable": "Feu Joseph GOUDOTE",
    "contacts": 22510363,
    "tel": 22510363,
    "latitude": "",
    "longitude": ""
  },
  {
    "departement": "ZOU",
    "commune": "Bohicon",
    "denomination": "Pharmacie De l'Etoile de Kpokon",
    "address": "KPOKON B.P. :116",
    "responsable": "Gisèle Monique M. ADJATIN",
    "contacts": 22511414,
    "tel": 22511414,
    "latitude": "",
    "longitude": ""
  },
  {
    "departement": "ZOU",
    "commune": "Bohicon",
    "denomination": "Pharmacie Ave Maria Carrefour Zakpo",
    "address": "BP 1868 Abomey-Calavi",
    "responsable": "AMOUSSOU Nathalie Gisèle",
    "contacts": 95566817,
    "tel": 68002462,
    "latitude": "",
    "longitude": ""
  },
  {
    "departement": "ZOU",
    "commune": "Bohicon",
    "denomination": "Pharmacie Shalom",
    "address": "Agongointo 03BP717 Cotonou",
    "responsable": "KOUSSEMOU Reine Pascaline",
    "contacts": 96032313,
    "tel": 96032313,
    "latitude": "",
    "longitude": ""
  },
  {
    "departement": "ZOU",
    "commune": "Bohicon",
    "denomination": "Pharmacie Midokpo",
    "address": "B.P. :109",
    "responsable": "Joseph OGOUA",
    "contacts": 22510221,
    "tel": 22510221,
    "latitude": "",
    "longitude": ""
  },
  {
    "departement": "ZOU",
    "commune": "Bohicon",
    "denomination": "Pharmacie Saint Henri",
    "address": "BOHICON       B.P. :31",
    "responsable": "Isabelle Marguerite DEGLA",
    "contacts": 22510577,
    "tel": 22510577,
    "latitude": "",
    "longitude": ""
  },
  {
    "departement": "ZOU",
    "commune": "Bohicon",
    "denomination": "Pharmacie HOUEFA",
    "address": "BOHICON",
    "responsable": "",
    "contacts": "",
    "tel": "",
    "latitude": "",
    "longitude": ""
  },
  {
    "departement": "ZOU",
    "commune": "Zogbodomey",
    "denomination": "Pharmacie Zogbodomey",
    "address": "ZOGBODOMEY",
    "responsable": "May Inès Priscille ADOGNIBO",
    "contacts": 97518535,
    "tel": 97518535,
    "latitude": "",
    "longitude": ""
  },
  {
    "departement": "ZOU",
    "commune": "Covè",
    "denomination": "Pharmacie Layo de Covè",
    "address": "COVE B.P. :119",
    "responsable": "Expédit SONOUNAMETO",
    "contacts": 97895862,
    "tel": 97895862,
    "latitude": "",
    "longitude": ""
  }
]
